﻿[
  {
    "SqlConfigurationName": "",
    "TestDBConnectionString": "",
    "SqlConfigurationJobs": [
      {
        "BeforeTestSqlFile": "",
        "AfterTestSqlFile": "",
        "SortOrder": ""
      },
      {
        "BeforeTestSqlFile": "",
        "AfterTestSqlFile": "",
        "SortOrder": ""
      }
    ]
  }
]
